<svg width="50" height="50" viewBox="0 0 50 50" fill="none" xmlns="http://www.w3.org/2000/svg">
<path fill-rule="evenodd" clip-rule="evenodd" d="M31.83 17.42C31.97 17.36 32.12 17.36 32.26 17.42C32.55 17.54 32.7 17.87 32.58 18.17L29.2 26.62C28.73 27.79 27.8 28.72 26.63 29.19L18.18 32.57C18.04 32.63 17.89 32.63 17.75 32.57C17.46 32.45 17.31 32.12 17.43 31.82L20.81 23.37C21.28 22.2 22.21 21.27 23.38 20.8L31.83 17.42ZM23.27 25C23.27 25.96 24.04 26.73 25 26.73C25.96 26.73 26.73 25.96 26.73 25C26.73 24.04 25.96 23.27 25 23.27C24.04 23.27 23.27 24.04 23.27 25Z" fill="#E8FF4D"/>
<path fill-rule="evenodd" clip-rule="evenodd" d="M10 25C10 16.73 16.73 10 25 10C33.27 10 40 16.73 40 25C40 33.27 33.27 40 25 40C16.73 40 10 33.27 10 25ZM12.31 25C12.31 32 18 37.69 25 37.69C32 37.69 37.69 32 37.69 25C37.69 18 32 12.31 25 12.31C18 12.31 12.31 18 12.31 25Z" fill="#E8FF4D"/>
</svg>
