<svg width="50" height="50" viewBox="0 0 50 50" fill="none" xmlns="http://www.w3.org/2000/svg">
<path fill-rule="evenodd" clip-rule="evenodd" d="M39.0182 33.5834C37.9682 32.3434 36.5482 31.9334 34.8782 32.3834C34.7782 32.2334 34.6582 32.0834 34.5482 31.9434L32.5582 29.3334C33.7682 27.9834 34.3582 26.3934 34.3082 24.6234C34.2582 22.8434 33.5882 21.2834 32.2982 19.9934L32.6182 19.5234C33.0382 18.9134 33.4482 18.3134 33.9082 17.6934C35.2882 18.0434 36.7082 17.6734 37.6982 16.6934C38.6882 15.7134 39.0682 14.3234 38.7182 12.9634C38.2282 11.0534 36.3782 9.80336 34.4382 10.0434C32.4682 10.2934 30.9882 11.9634 30.9882 13.9234C30.9882 14.7734 31.2582 15.5534 31.7982 16.2934L30.2182 18.5934C28.1782 17.7834 26.1782 17.8734 24.2482 18.8634L23.7582 18.2634C23.1282 17.4934 22.5082 16.7334 21.8882 15.9834C22.4682 15.0334 22.6282 14.0334 22.3682 12.9934C21.8582 10.9434 19.8482 9.67336 17.7882 10.0834C15.7482 10.4934 14.3482 12.4534 14.6582 14.4434C14.9982 16.5734 16.9082 18.0334 19.0182 17.7734C19.2882 17.7434 19.5582 17.6734 19.8382 17.6034C19.8882 17.5934 19.9282 17.5834 19.9782 17.5634L22.3282 20.4234C21.5382 21.3634 21.0382 22.4234 20.8382 23.5734H20.7182C19.6882 23.5734 18.6682 23.5734 17.6582 23.5934C17.6482 23.5834 17.6082 23.5234 17.5982 23.5034L17.4782 23.2934C17.2682 22.9134 17.0382 22.5134 16.7282 22.1834C15.6182 21.0034 13.8882 20.6534 12.4182 21.3034C10.9082 21.9634 9.89818 23.5634 10.0082 25.0834C10.1482 26.9034 11.4882 28.4034 13.2782 28.7134C15.0382 29.0234 16.8082 28.0534 17.4982 26.4134C17.6582 26.0234 17.7782 25.9834 18.1682 26.0034C18.8682 26.0334 19.5582 26.0234 20.2382 26.0234H20.7982C20.8182 26.0934 20.8382 26.1634 20.8582 26.2334C20.9582 26.5934 21.0582 26.9434 21.1882 27.2734C21.3282 27.6134 21.4982 27.9434 21.6782 28.2834L21.7882 28.4834L20.4182 29.7734C19.4282 30.7034 18.4382 31.6434 17.4282 32.5934C16.0082 31.9334 14.6082 32.0734 13.3782 33.0134C12.1582 33.9434 11.6382 35.2434 11.8982 36.7734C12.1882 38.5534 13.7082 39.8734 15.5882 39.9934C15.6682 39.9934 15.7482 39.9934 15.8182 39.9934C17.4782 39.9934 19.0482 38.8634 19.5282 37.2734C19.8382 36.2634 19.7282 35.2434 19.2082 34.2534L23.4882 30.2334C25.7382 31.7334 28.1282 31.9234 30.5982 30.8034L32.8682 33.7834C31.9582 35.0734 31.8482 36.4734 32.5482 37.8334C33.2682 39.2334 34.4682 39.9734 36.0182 39.9734H36.0682C37.6882 39.9534 38.8982 39.2034 39.5882 37.7834C40.2982 36.3234 40.0882 34.8334 39.0082 33.5634L39.0182 33.5834ZM15.7782 37.4534C15.0382 37.4534 14.3382 36.7534 14.3282 36.0134C14.3282 35.6434 14.4682 35.2934 14.7482 35.0134C15.3082 34.4534 16.2582 34.4534 16.8082 35.0134C17.0782 35.2834 17.2282 35.6434 17.2182 36.0234C17.2182 36.7734 16.5182 37.4634 15.7782 37.4634V37.4534ZM19.9782 13.8234C19.9782 14.1834 19.8082 14.5534 19.5282 14.8334C19.2582 15.1034 18.8982 15.2534 18.5682 15.2534H18.5482C18.1982 15.2534 17.8282 15.0834 17.5482 14.7934C17.2682 14.5134 17.1082 14.1534 17.1182 13.8034C17.1282 13.0334 17.7782 12.4034 18.5682 12.4034C18.9882 12.4134 19.3082 12.5534 19.5782 12.8134C19.8382 13.0834 19.9882 13.4334 19.9882 13.8134L19.9782 13.8234ZM33.4782 13.8134C33.4782 13.0734 34.1382 12.4134 34.8982 12.4134C35.2882 12.4134 35.6482 12.5634 35.9182 12.8234C36.1782 13.0834 36.3282 13.4334 36.3282 13.8134C36.3282 14.5534 35.6582 15.2334 34.9182 15.2434C34.6082 15.2834 34.2282 15.0934 33.9382 14.8134C33.6482 14.5234 33.4782 14.1634 33.4782 13.8134ZM31.8182 24.7934C31.8182 25.9534 31.3682 27.0334 30.5482 27.8334C29.7482 28.6234 28.6682 29.0634 27.5282 29.0634H27.4982C24.8482 29.0434 23.2082 26.8234 23.2182 24.7734C23.2182 22.6934 24.8382 20.5334 27.5282 20.5234H27.5482C28.6882 20.5234 29.7482 20.9534 30.5482 21.7534C31.3682 22.5634 31.8182 23.6434 31.8082 24.8034L31.8182 24.7934ZM21.8282 16.0534L21.5082 15.8834L21.8482 15.9634C21.8482 15.9634 21.8482 16.0334 21.8382 16.0534H21.8282ZM15.3382 24.7934C15.3382 25.5434 14.6982 26.1734 13.9382 26.1734C13.5782 26.1734 13.2282 26.0234 12.9582 25.7534C12.6882 25.4834 12.5382 25.1134 12.5382 24.7534C12.5382 24.0034 13.1682 23.3934 13.9482 23.3934C14.3082 23.3934 14.6582 23.5434 14.9182 23.8134C15.1782 24.0734 15.3282 24.4334 15.3282 24.7934H15.3382Z" fill="#E8FF4D"/>
</svg>
