<svg width="50" height="50" viewBox="0 0 50 50" fill="none" xmlns="http://www.w3.org/2000/svg">
<path fill-rule="evenodd" clip-rule="evenodd" d="M31.99 11.0024C28.52 11.0024 26.22 13.1524 25 14.7224C23.78 13.1524 21.48 11.0024 18.01 11.0024C13.64 11.0024 10.05 14.6824 9.99999 19.2124C9.95999 23.1624 11.34 26.8124 14.23 30.3724C15.58 32.0424 18.04 34.7124 23.7 38.5924C24.48 39.1324 25.51 39.1324 26.3 38.5924C31.97 34.7024 34.42 32.0324 35.77 30.3724C38.65 26.8224 40.04 23.1724 40 19.2124C39.95 14.6824 36.36 11.0024 31.99 11.0024ZM25 17.5024L27.68 14.9124C28.95 13.9224 30.38 13.3324 31.99 13.3324C35.1 13.3324 37.66 15.9824 37.69 19.2424C37.76 26.8724 31.32 32.3324 25 36.6724V17.5024Z" fill="#E8FF4D"/>
</svg>
