<svg width="50" height="50" viewBox="0 0 50 50" fill="none" xmlns="http://www.w3.org/2000/svg">
<path fill-rule="evenodd" clip-rule="evenodd" d="M38.9252 17.5C39.5151 17.5 39.995 17.02 39.995 16.43V11.07C39.995 10.92 39.965 10.79 39.915 10.66C39.865 10.53 39.785 10.41 39.6851 10.31C39.5851 10.21 39.4651 10.13 39.3351 10.08C39.2051 10.03 39.0652 10 38.9252 10H33.5661C32.9762 10 32.4963 10.48 32.4963 11.07C32.4963 11.66 32.9762 12.14 33.5661 12.14H36.3356L31.0065 17.47C29.3568 16.15 27.2671 15.36 24.9875 15.36C22.7079 15.36 20.6182 16.15 18.9685 17.47L17.9287 16.43L20.3883 13.97C20.8082 13.55 20.8082 12.87 20.3883 12.45C19.9683 12.03 19.2885 12.03 18.8685 12.45L16.4089 14.91L13.6394 12.14H16.4089C16.9988 12.14 17.4788 11.66 17.4788 11.07C17.4788 10.48 17.0188 10 16.4289 10H11.0698C10.9298 10 10.7899 10.03 10.6599 10.08C10.5399 10.13 10.4199 10.21 10.3199 10.31C10.22 10.41 10.14 10.53 10.09 10.65C10.03 10.79 10 10.92 10 11.07V16.43C10 17.02 10.4799 17.5 11.0698 17.5C11.6597 17.5 12.1396 17.02 12.1396 16.43V13.66L14.9092 16.43L12.4496 18.89C12.0297 19.31 12.0297 19.99 12.4496 20.41C12.6596 20.62 12.9295 20.72 13.2095 20.72C13.4894 20.72 13.7594 20.62 13.9693 20.41L16.4289 17.95L17.4688 18.99C16.149 20.64 15.3591 22.73 15.3591 25.01C15.3591 30.33 19.6884 34.65 24.9975 34.65C27.2771 34.65 29.3668 33.86 31.0165 32.53L33.1261 34.64L30.6666 37.1C30.2466 37.52 30.2466 38.2 30.6666 38.62C31.0865 39.04 31.7664 39.04 32.1863 38.62L34.6459 36.16L38.1653 39.69C38.3753 39.9 38.6452 40 38.9252 40C39.2051 40 39.4751 39.9 39.6851 39.69C40.105 39.27 40.105 38.59 39.6851 38.17L36.1656 34.64L38.6152 32.19C39.0352 31.77 39.0352 31.09 38.6152 30.67C38.1953 30.25 37.5154 30.25 37.0955 30.67L34.6459 33.12L32.5362 31C33.856 29.35 34.6359 27.26 34.6359 24.99C34.6359 22.72 33.846 20.62 32.5262 18.97L37.8554 13.64V16.41C37.8554 17 38.3353 17.48 38.9252 17.48V17.5ZM17.4988 25C17.4988 20.86 20.8582 17.5 24.9975 17.5C29.1368 17.5 32.4963 20.86 32.4963 25C32.4963 29.14 29.1368 32.5 24.9975 32.5C20.8582 32.5 17.4988 29.14 17.4988 25Z" fill="#E8FF4D"/>
</svg>
