<svg width="50" height="50" viewBox="0 0 50 50" fill="none" xmlns="http://www.w3.org/2000/svg">
<path fill-rule="evenodd" clip-rule="evenodd" d="M39.0896 34.2703C37.9696 34.0803 36.8796 33.8503 35.8196 33.5703C36.5996 31.2603 36.6696 28.7203 35.9996 26.2403C35.0996 22.9503 33.0096 20.0803 29.9496 17.9503C27.2196 16.0503 24.4896 15.5503 21.8596 15.0703C18.5296 14.4603 15.3896 13.8903 12.3896 10.4603C12.0496 10.0703 11.5896 9.92034 11.1596 10.0403C10.6596 10.1803 10.3296 10.6103 10.1696 11.3103C9.78956 12.9503 10.0296 17.5603 11.0796 22.4203C12.0096 26.7303 13.8696 32.6003 17.4296 36.1103C19.9696 38.6103 23.2796 40.0003 26.5796 40.0003C27.1996 40.0003 27.8196 39.9503 28.4396 39.8503C31.2296 39.3903 33.5496 37.8803 34.8596 35.6803C36.1196 36.0303 37.4196 36.3203 38.7696 36.5503C39.3496 36.6503 39.8996 36.2103 39.9896 35.5803C40.0796 34.9503 39.6796 34.3603 39.0996 34.2603L39.0896 34.2703ZM33.7496 32.9303C28.8196 31.2403 24.4796 28.3503 20.1496 23.9503C19.7196 23.5103 19.0396 23.5303 18.6396 24.0003C18.2396 24.4603 18.2596 25.2003 18.6896 25.6303C23.1396 30.1603 27.6196 33.1803 32.6896 34.9803C31.6696 36.3303 30.0796 37.2403 28.1296 37.5603C26.6096 37.8103 24.9796 37.6703 23.4096 37.1703C21.7396 36.6303 20.1796 35.6703 18.8896 34.4003C16.3696 31.9103 14.3096 27.3403 13.0996 21.5203C12.3696 18.0003 12.1496 15.0903 12.1496 13.3803C15.2396 16.2003 18.4196 16.7703 21.5096 17.3403C24.0496 17.8003 26.4396 18.2403 28.7996 19.8803C31.4196 21.7103 33.1996 24.1303 33.9596 26.8803C34.5196 28.9403 34.4496 31.0403 33.7696 32.9303H33.7496Z" fill="#E8FF4D"/>
</svg>
