<svg width="30" height="30" viewBox="0 0 30 30" fill="none" xmlns="http://www.w3.org/2000/svg">
<path d="M17.7143 13.9821C17.7143 14.5443 17.2586 15 16.6964 15C16.1343 15 15.6786 14.5443 15.6786 13.9821C15.6786 13.42 16.1343 12.9643 16.6964 12.9643C17.2586 12.9643 17.7143 13.42 17.7143 13.9821Z" fill="#18365C"/>
<path d="M20.0893 15C20.6514 15 21.1071 14.5443 21.1071 13.9821C21.1071 13.42 20.6514 12.9643 20.0893 12.9643C19.5271 12.9643 19.0714 13.42 19.0714 13.9821C19.0714 14.5443 19.5271 15 20.0893 15Z" fill="#18365C"/>
<path d="M17.7143 17.375C17.7143 17.9371 17.2586 18.3929 16.6964 18.3929C16.1343 18.3929 15.6786 17.9371 15.6786 17.375C15.6786 16.8129 16.1343 16.3571 16.6964 16.3571C17.2586 16.3571 17.7143 16.8129 17.7143 17.375Z" fill="#18365C"/>
<path d="M20.0893 18.3929C20.6514 18.3929 21.1071 17.9371 21.1071 17.375C21.1071 16.8129 20.6514 16.3571 20.0893 16.3571C19.5271 16.3571 19.0714 16.8129 19.0714 17.375C19.0714 17.9371 19.5271 18.3929 20.0893 18.3929Z" fill="#18365C"/>
<path d="M10.9286 17.375C10.9286 17.9371 10.4729 18.3929 9.91071 18.3929C9.34857 18.3929 8.89286 17.9371 8.89286 17.375C8.89286 16.8129 9.34857 16.3571 9.91071 16.3571C10.4729 16.3571 10.9286 16.8129 10.9286 17.375Z" fill="#18365C"/>
<path d="M13.3036 18.3929C13.8657 18.3929 14.3214 17.9371 14.3214 17.375C14.3214 16.8129 13.8657 16.3571 13.3036 16.3571C12.7414 16.3571 12.2857 16.8129 12.2857 17.375C12.2857 17.9371 12.7414 18.3929 13.3036 18.3929Z" fill="#18365C"/>
<path d="M10.9286 20.7679C10.9286 21.33 10.4729 21.7857 9.91071 21.7857C9.34857 21.7857 8.89286 21.33 8.89286 20.7679C8.89286 20.2057 9.34857 19.75 9.91071 19.75C10.4729 19.75 10.9286 20.2057 10.9286 20.7679Z" fill="#18365C"/>
<path d="M13.3036 21.7857C13.8657 21.7857 14.3214 21.33 14.3214 20.7679C14.3214 20.2057 13.8657 19.75 13.3036 19.75C12.7414 19.75 12.2857 20.2057 12.2857 20.7679C12.2857 21.33 12.7414 21.7857 13.3036 21.7857Z" fill="#18365C"/>
<path d="M17.7143 20.7679C17.7143 21.33 17.2586 21.7857 16.6964 21.7857C16.1343 21.7857 15.6786 21.33 15.6786 20.7679C15.6786 20.2057 16.1343 19.75 16.6964 19.75C17.2586 19.75 17.7143 20.2057 17.7143 20.7679Z" fill="#18365C"/>
<path fill-rule="evenodd" clip-rule="evenodd" d="M9.57143 5.5C9.94619 5.5 10.25 5.80381 10.25 6.17857V6.85714H19.75V6.17857C19.75 5.80381 20.0538 5.5 20.4286 5.5C20.8033 5.5 21.1071 5.80381 21.1071 6.17857V6.85714H21.7857C23.2848 6.85714 24.5 8.07237 24.5 9.57143V21.7857C24.5 23.2848 23.2848 24.5 21.7857 24.5H8.21429C6.71523 24.5 5.5 23.2848 5.5 21.7857V9.57143C5.5 8.07237 6.71523 6.85714 8.21429 6.85714H8.89286V6.17857C8.89286 5.80381 9.19666 5.5 9.57143 5.5ZM21.7857 8.21429C22.5352 8.21429 23.1429 8.8219 23.1429 9.57143V10.25H6.85714V9.57143C6.85714 8.8219 7.46476 8.21429 8.21429 8.21429H21.7857ZM6.85714 11.6071V21.7857C6.85714 22.5352 7.46476 23.1429 8.21429 23.1429H21.7857C22.5352 23.1429 23.1429 22.5352 23.1429 21.7857V11.6071H6.85714Z" fill="#18365C"/>
</svg>
