<svg width="30" height="30" viewBox="0 0 30 30" fill="none" xmlns="http://www.w3.org/2000/svg">
<path id="Union" fill-rule="evenodd" clip-rule="evenodd" d="M15 0C6.7275 0 0 6.7275 0 15C0 23.2725 6.7275 30 15 30C23.2725 30 30 23.2725 30 15C30 6.7275 23.2725 0 15 0ZM15 27.6C8.055 27.6 2.4 21.945 2.4 15C2.4 8.055 8.055 2.4 15 2.4C21.945 2.4 27.6 8.055 27.6 15C27.6 21.945 21.945 27.6 15 27.6ZM18.6 20.7H16.5V12.9C16.5 12.24 15.96 11.7 15.3 11.7H12.9C12.24 11.7 11.7 12.24 11.7 12.9C11.7 13.56 12.24 14.1 12.9 14.1H14.1V20.7H12C11.34 20.7 10.8 21.24 10.8 21.9C10.8 22.56 11.34 23.1 12 23.1H18.6C19.26 23.1 19.8 22.56 19.8 21.9C19.8 21.24 19.26 20.7 18.6 20.7ZM16.95 8.1C16.95 9.17696 16.077 10.05 15 10.05C13.923 10.05 13.05 9.17696 13.05 8.1C13.05 7.02305 13.923 6.15 15 6.15C16.077 6.15 16.95 7.02305 16.95 8.1Z" fill="#18365C"/>
</svg>
