<svg width="16" height="16" viewBox="0 0 16 16" fill="none" xmlns="http://www.w3.org/2000/svg">
<g id="Vector">
<path d="M14.8124 7.25C14.3604 7.25 14.0591 7.55 14.0591 8C14.0591 11.3 11.3473 14 8.03282 14C4.71838 14 2.00656 11.3 2.00656 8C2.00656 6.425 2.60919 4.925 3.73911 3.8C4.86903 2.6 6.3756 2 8.03282 2C8.48479 2 9.01208 2.075 9.46405 2.15C9.84069 2.3 10.2927 2.075 10.4433 1.625C10.594 1.175 10.2927 0.875 9.91602 0.725H9.84069C9.23807 0.575 8.63544 0.5 8.03282 0.5C3.88977 0.5 0.5 3.875 0.5 8.075C0.5 10.025 1.32861 11.975 2.68452 13.325C4.11575 14.75 5.99896 15.5 7.95749 15.5C12.1005 15.5 15.4903 12.125 15.4903 8C15.5656 7.55 15.189 7.25 14.8124 7.25Z" fill="white"/>
<path fill-rule="evenodd" clip-rule="evenodd" d="M4.70503 4.70503C4.97839 4.43166 5.42161 4.43166 5.69497 4.70503L8 7.01005L10.305 4.70503C10.5784 4.43166 11.0216 4.43166 11.295 4.70503C11.5683 4.97839 11.5683 5.42161 11.295 5.69497L8.98995 8L11.295 10.305C11.5683 10.5784 11.5683 11.0216 11.295 11.295C11.0216 11.5683 10.5784 11.5683 10.305 11.295L8 8.98995L5.69497 11.295C5.42161 11.5683 4.97839 11.5683 4.70503 11.295C4.43166 11.0216 4.43166 10.5784 4.70503 10.305L7.01005 8L4.70503 5.69497C4.43166 5.42161 4.43166 4.97839 4.70503 4.70503Z" fill="white"/>
</g>
</svg>
